^C:\USERS\MAGSHIMIM\DOCUMENTS\MAGSHIMIM\C++\EX18_ITAY_LEVI\EX18_ITAY_LEVI\SOURCE.CPP|C:\USERS\MAGSHIMIM\DOWNLOADS\HELPER.CPP
C:\USERS\MAGSHIMIM\DOCUMENTS\MAGSHIMIM\C++\EX18_ITAY_LEVI\EX18_ITAY_LEVI\DEBUG\VC141.PDB
C:\USERS\MAGSHIMIM\DOCUMENTS\MAGSHIMIM\C++\EX18_ITAY_LEVI\EX18_ITAY_LEVI\DEBUG\VC141.IDB
C:\USERS\MAGSHIMIM\DOCUMENTS\MAGSHIMIM\C++\EX18_ITAY_LEVI\EX18_ITAY_LEVI\DEBUG\SOURCE.OBJ
^C:\USERS\MAGSHIMIM\DOCUMENTS\MAGSHIMIM\C++\EX18_ITAY_LEVI\EX18_ITAY_LEVI\HELPER.CPP|C:\USERS\MAGSHIMIM\DOCUMENTS\MAGSHIMIM\C++\EX18_ITAY_LEVI\EX18_ITAY_LEVI\SOURCE.CPP
C:\USERS\MAGSHIMIM\DOCUMENTS\MAGSHIMIM\C++\EX18_ITAY_LEVI\EX18_ITAY_LEVI\DEBUG\VC141.PDB
C:\USERS\MAGSHIMIM\DOCUMENTS\MAGSHIMIM\C++\EX18_ITAY_LEVI\EX18_ITAY_LEVI\DEBUG\VC141.IDB
C:\USERS\MAGSHIMIM\DOCUMENTS\MAGSHIMIM\C++\EX18_ITAY_LEVI\EX18_ITAY_LEVI\DEBUG\SOURCE.OBJ
C:\USERS\MAGSHIMIM\DOCUMENTS\MAGSHIMIM\C++\EX18_ITAY_LEVI\EX18_ITAY_LEVI\DEBUG\HELPER.OBJ
^C:\USERS\MAGSHIMIM\DOCUMENTS\MAGSHIMIM\C++\EX18_ITAY_LEVI\EX18_ITAY_LEVI\HELPER.CPP
C:\USERS\MAGSHIMIM\DOCUMENTS\MAGSHIMIM\C++\EX18_ITAY_LEVI\EX18_ITAY_LEVI\DEBUG\VC141.PDB
^C:\USERS\MAGSHIMIM\DOCUMENTS\MAGSHIMIM\C++\EX18_ITAY_LEVI\EX18_ITAY_LEVI\SOURCE.CPP
C:\USERS\MAGSHIMIM\DOCUMENTS\MAGSHIMIM\C++\EX18_ITAY_LEVI\EX18_ITAY_LEVI\DEBUG\VC141.PDB
C:\USERS\MAGSHIMIM\DOCUMENTS\MAGSHIMIM\C++\EX18_ITAY_LEVI\EX18_ITAY_LEVI\DEBUG\VC141.IDB
C:\USERS\MAGSHIMIM\DOCUMENTS\MAGSHIMIM\C++\EX18_ITAY_LEVI\EX18_ITAY_LEVI\DEBUG\SOURCE.OBJ
